\relax 
\providecommand\hyper@newdestlabel[2]{}
\catcode `:\active 
\catcode `;\active 
\catcode `!\active 
\catcode `?\active 
\providecommand\HyperFirstAtBeginDocument{\AtBeginDocument}
\HyperFirstAtBeginDocument{\ifx\hyper@anchor\@undefined
\global\let\oldcontentsline\contentsline
\gdef\contentsline#1#2#3#4{\oldcontentsline{#1}{#2}{#3}}
\global\let\oldnewlabel\newlabel
\gdef\newlabel#1#2{\newlabelxx{#1}#2}
\gdef\newlabelxx#1#2#3#4#5#6{\oldnewlabel{#1}{{#2}{#3}}}
\AtEndDocument{\ifx\hyper@anchor\@undefined
\let\contentsline\oldcontentsline
\let\newlabel\oldnewlabel
\fi}
\fi}
\global\let\hyper@last\relax 
\gdef\HyperFirstAtBeginDocument#1{#1}
\providecommand\HyField@AuxAddToFields[1]{}
\providecommand\HyField@AuxAddToCoFields[2]{}
\select@language{french}
\@writefile{toc}{\select@language{french}}
\@writefile{lof}{\select@language{french}}
\@writefile{lot}{\select@language{french}}
\@writefile{lot}{\contentsline {table}{\numberline {1}{\ignorespaces Liste des b\IeC {\^a}timents du jeu, cit\IeC {\'e}s dans le discours de la servitude volontaire (hormis le laboratoire), et leurs r\IeC {\'e}percussions.}}{2}{table.1}}
\newlabel{sec::nav}{{}{4}{Exemple de partie}{section*.11}{}}
\@writefile{lot}{\contentsline {table}{\numberline {2}{\ignorespaces Liste des \IeC {\'e}crans du jeu et de leur contenu.}}{4}{table.2}}
\@writefile{lof}{\contentsline {figure}{\numberline {1}{\ignorespaces \color  {captioncolor}{\IeC {\'E}cran inf\IeC {\'e}rieur de base de la Nintendo 3DS.}}}{4}{figure.1}}
